%YAML 1.1
%TAG !u! tag:unity3d.com,2011:
--- !u!78 &1
TagManager:
  serializedVersion: 2
  tags:
  - food
  - badFood
  - agent
  - wall
  - ground
  - ammo
  - booster
  - health
  - walkableSurface
  - block
  - goal
  - target
  - pit
  - symbol_X
  - symbol_X_Goal
  - symbol_O_Goal
  - symbol_O
  - switchOff
  - pyramid
  - stone
  - ball
  - iWall
  - zone
  - purpleAgent
  - blueAgent
  - purpleGoal
  - blueGoal
  - bullet
  layers:
  - Default
  - TransparentFX
  - Ignore Raycast
  - 
  - Water
  - UI
  - 
  - 
  - PostProcessing
  - Collectible
  - Zone
  - Agents
  - 
  - 
  - 
  - 
  - 
  - 
  - 
  - 
  - 
  - 
  - 
  - 
  - 
  - 
  - 
  - 
  - 
  - 
  - 
  - 
  m_SortingLayers:
  - name: Default
    uniqueID: 0
    locked: 0
